.. Titanic documentation master file, created by
   sphinx-quickstart on Thu May  7 15:41:25 2020.
   You can adapt this file completely to your liking, but it should at least
   contain the root `toctree` directive.

Welcome to Titanic's documentation!
===================================

.. toctree::
   :maxdepth: 2
   :caption: Contents:



Indices and tables
==================

* :ref:`genindex`
* :ref:`modindex`
* :ref:`search`
